<?xml version="1.0" encoding="utf-8"?>
<!-- Generator: Adobe Illustrator 16.0.0, SVG Export Plug-In . SVG Version: 6.00 Build 0)  -->
<!DOCTYPE svg PUBLIC "-//W3C//DTD SVG 1.1//EN" "http://www.w3.org/Graphics/SVG/1.1/DTD/svg11.dtd">
<svg version="1.1" id="Calque_1" xmlns="http://www.w3.org/2000/svg" xmlns:xlink="http://www.w3.org/1999/xlink" x="0px" y="0px"
	 width="28.318px" height="28.318px" viewBox="0 0 28.318 28.318" enable-background="new 0 0 28.318 28.318" xml:space="preserve">
<g>
	<g>
		<g>
			<g>
				<path fill="none" stroke="#D81327" stroke-miterlimit="10" d="M17.25,10.07c0.517-4.438-3.072-4.238-3.208-4.229
					c-0.136-0.009-3.725-0.209-3.208,4.229c-0.142,0.117-0.215,0.353-0.172,0.603c0.044,0.257,0.199,0.45,0.376,0.496
					c0.77,2.909,2.899,2.904,3.004,2.902c0.104,0.002,2.233,0.007,3.004-2.902c0.177-0.045,0.331-0.239,0.376-0.496
					C17.465,10.423,17.391,10.187,17.25,10.07z"/>
			</g>
			<g>
				<path fill="none" stroke="#D81327" stroke-miterlimit="10" d="M14.042,21.669c3.995,0.053,6.071-1.66,6.071-1.66
					s0.006-4.604-1.09-5.5c-1.143-0.934-3.529-1.09-3.529-1.09c-0.467,0.778-1.453,0.623-1.453,0.623l0,0
					c0,0-0.986,0.156-1.453-0.623c0,0-2.387,0.156-3.528,1.09c-1.096,0.896-1.09,5.5-1.09,5.5S10.047,21.722,14.042,21.669
					L14.042,21.669z"/>
			</g>
		</g>
	</g>
	<circle fill="none" stroke="#D81327" stroke-miterlimit="10" cx="14.159" cy="14.159" r="13.659"/>
</g>
</svg>
