<?xml version="1.0" encoding="utf-8"?>
<!-- Generator: Adobe Illustrator 16.0.0, SVG Export Plug-In . SVG Version: 6.00 Build 0)  -->
<!DOCTYPE svg PUBLIC "-//W3C//DTD SVG 1.1//EN" "http://www.w3.org/Graphics/SVG/1.1/DTD/svg11.dtd">
<svg version="1.1" id="Calque_1" xmlns="http://www.w3.org/2000/svg" xmlns:xlink="http://www.w3.org/1999/xlink" x="0px" y="0px"
	 width="28.318px" height="28.318px" viewBox="0 0 28.318 28.318" enable-background="new 0 0 28.318 28.318" xml:space="preserve">
<circle fill="none" stroke="#010101" stroke-miterlimit="10" cx="14.159" cy="14.159" r="13.659"/>
<polygon fill="none" stroke="#010101" stroke-miterlimit="10" points="20.485,16.928 11.593,16.928 9.74,11.556 18.632,11.556 "/>
<polyline fill="none" stroke="#010101" stroke-miterlimit="10" points="10.201,12.686 8.349,7.906 6.785,7.906 "/>
<path fill="#010101" d="M13.854,20.447c0,0.666-0.539,1.205-1.204,1.205s-1.204-0.539-1.204-1.205c0-0.664,0.539-1.203,1.204-1.203
	S13.854,19.783,13.854,20.447"/>
<path fill="#010101" d="M19.151,20.447c0,0.666-0.539,1.205-1.204,1.205s-1.204-0.539-1.204-1.205c0-0.664,0.539-1.203,1.204-1.203
	S19.151,19.783,19.151,20.447"/>
</svg>
