<?xml version="1.0" encoding="utf-8"?>
<!-- Generator: Adobe Illustrator 16.0.0, SVG Export Plug-In . SVG Version: 6.00 Build 0)  -->
<!DOCTYPE svg PUBLIC "-//W3C//DTD SVG 1.1//EN" "http://www.w3.org/Graphics/SVG/1.1/DTD/svg11.dtd">
<svg version="1.1" id="Calque_1" xmlns="http://www.w3.org/2000/svg" xmlns:xlink="http://www.w3.org/1999/xlink" x="0px" y="0px"
	 width="25.765px" height="25.764px" viewBox="0 0 25.765 25.764" enable-background="new 0 0 25.765 25.764" xml:space="preserve">
<path fill="#EB4330" d="M25.25,12.882c0,6.83-5.537,12.367-12.367,12.367c-6.831,0-12.368-5.537-12.368-12.367
	S6.052,0.515,12.883,0.515C19.713,0.515,25.25,6.052,25.25,12.882"/>
<circle fill="none" stroke="#FFFFFF" stroke-width="1.03" stroke-miterlimit="10" cx="12.883" cy="12.882" r="12.368"/>
<path fill="#EB4330" d="M16.334,9.022l-0.567-1.331l-1.766-1.197h-1.45l-0.555,1.264l-1.59,1.265L9.734,8.024L9.209,8.09v0.932
	L8.516,9.8L7.95,9.585L6.745,9.879l-0.213,1.077l2.3,0.707v0.819l0.902,1.249v2.249l-0.588-0.574l-0.504,2.135l1.892,0.931
	l2.206,0.799l1.514-1.397h1.135l0.946,0.066l2.459-0.466c0,0-0.315-1.031-0.315-1.313c0-0.283,0.315-1.135,0.315-1.135
	s-0.063-1.261-0.252-1.17c-0.189,0.092-0.758,0.192-0.758,0.192l0.441-1.166l0.568-1.197l0.44-1.268l-1.323-0.832L16.334,9.022z"/>
<path fill="none" stroke="#FFFFFF" stroke-width="1.03" stroke-miterlimit="10" d="M16.334,9.022l-0.567-1.331l-1.766-1.197h-1.45
	l-0.555,1.264l-1.59,1.265L9.734,8.024L9.209,8.09v0.932L8.516,9.8L7.95,9.585L6.745,9.879l-0.213,1.077l2.3,0.707v0.819
	l0.902,1.249v2.249l-0.588-0.574l-0.504,2.135l1.892,0.931l2.206,0.799l1.514-1.397h1.135l0.946,0.066l2.459-0.466
	c0,0-0.315-1.031-0.315-1.313c0-0.283,0.315-1.135,0.315-1.135s-0.063-1.261-0.252-1.17c-0.189,0.092-0.758,0.192-0.758,0.192
	l0.441-1.166l0.568-1.197l0.44-1.268l-1.323-0.832L16.334,9.022z"/>
</svg>
